{
    "CrearTabla":"CREATE TABLE if not exists {} ( {} )",
    "InsertarDatos":"INSERT INTO {} VALUES ( {} )",
    "VerDatos":"SELECT EXISTS(SELECT 1 FROM {} WHERE {} = {})",
    "ActualizarDatos":"UPDATE {} SET {}='{}' WHERE {}={}",
    "EliminarDatos":"DELETE FROM {} WHERE {}={}",
    "Pelicula":"ID INTEGER primary key, NOMBRE VARCHAR(30) not null, DURACION TEXT, GENERO TEXT"
}